^C:\USERS\ASHOK\DOCUMENTS\VISUAL STUDIO 2010\PROJECTS\HW5CSCI580\DEBUG\APPLICATION.OBJ|C:\USERS\ASHOK\DOCUMENTS\VISUAL STUDIO 2010\PROJECTS\HW5CSCI580\DEBUG\APPLICATION5.OBJ|C:\USERS\ASHOK\DOCUMENTS\VISUAL STUDIO 2010\PROJECTS\HW5CSCI580\DEBUG\CS580HW.OBJ|C:\USERS\ASHOK\DOCUMENTS\VISUAL STUDIO 2010\PROJECTS\HW5CSCI580\DEBUG\CS580HW.RES|C:\USERS\ASHOK\DOCUMENTS\VISUAL STUDIO 2010\PROJECTS\HW5CSCI580\DEBUG\CS580HW5.EXE.EMBED.MANIFEST.RES|C:\USERS\ASHOK\DOCUMENTS\VISUAL STUDIO 2010\PROJECTS\HW5CSCI580\DEBUG\CS580HWDOC.OBJ|C:\USERS\ASHOK\DOCUMENTS\VISUAL STUDIO 2010\PROJECTS\HW5CSCI580\DEBUG\CS580HWVIEW.OBJ|C:\USERS\ASHOK\DOCUMENTS\VISUAL STUDIO 2010\PROJECTS\HW5CSCI580\DEBUG\DISP.OBJ|C:\USERS\ASHOK\DOCUMENTS\VISUAL STUDIO 2010\PROJECTS\HW5CSCI580\DEBUG\MAINFRM.OBJ|C:\USERS\ASHOK\DOCUMENTS\VISUAL STUDIO 2010\PROJECTS\HW5CSCI580\DEBUG\REND.OBJ|C:\USERS\ASHOK\DOCUMENTS\VISUAL STUDIO 2010\PROJECTS\HW5CSCI580\DEBUG\ROTATEDLG.OBJ|C:\USERS\ASHOK\DOCUMENTS\VISUAL STUDIO 2010\PROJECTS\HW5CSCI580\DEBUG\SCALEDLG.OBJ|C:\USERS\ASHOK\DOCUMENTS\VISUAL STUDIO 2010\PROJECTS\HW5CSCI580\DEBUG\STDAFX.OBJ|C:\USERS\ASHOK\DOCUMENTS\VISUAL STUDIO 2010\PROJECTS\HW5CSCI580\DEBUG\TEX_FUN.OBJ|C:\USERS\ASHOK\DOCUMENTS\VISUAL STUDIO 2010\PROJECTS\HW5CSCI580\DEBUG\TRANSLATEDLG.OBJ
/ERRORREPORT:PROMPT /OUT:".\Debug\CS580HW5.exe" /INCREMENTAL /NOLOGO /MANIFEST /ManifestFile:".\Debug\CS580HW5.exe.intermediate.manifest" /MANIFESTUAC:"level='asInvoker' uiAccess='false'" /DEBUG /PDB:"C:\Users\ashok\Documents\Visual Studio 2010\Projects\hw5csci580\Debug\CS580HW5.pdb" /SUBSYSTEM:WINDOWS /TLBID:1 /DYNAMICBASE /NXCOMPAT /IMPLIB:".\Debug\CS580HW5.lib" /MACHINE:X86 .\Debug\CS580HW.res
.\Debug\CS580HW5.exe.embed.manifest.res
.\Debug\Application.obj
.\Debug\Application5.obj
.\Debug\CS580HW.obj
.\Debug\CS580HWDoc.obj
.\Debug\CS580HWView.obj
.\Debug\disp.obj
.\Debug\MainFrm.obj
.\Debug\rend.obj
.\Debug\RotateDlg.obj
.\Debug\ScaleDlg.obj
.\Debug\StdAfx.obj
.\Debug\tex_fun.obj
.\Debug\TranslateDlg.obj
^C:\USERS\ANUJ_VARMA\DOWNLOADS\STUDIES\CSCI580 HOMEWORKS AND OTHER MATERIAL\HW5\DEBUG\APPLICATION.OBJ|C:\USERS\ANUJ_VARMA\DOWNLOADS\STUDIES\CSCI580 HOMEWORKS AND OTHER MATERIAL\HW5\DEBUG\APPLICATION5.OBJ|C:\USERS\ANUJ_VARMA\DOWNLOADS\STUDIES\CSCI580 HOMEWORKS AND OTHER MATERIAL\HW5\DEBUG\CS580HW.OBJ|C:\USERS\ANUJ_VARMA\DOWNLOADS\STUDIES\CSCI580 HOMEWORKS AND OTHER MATERIAL\HW5\DEBUG\CS580HW.RES|C:\USERS\ANUJ_VARMA\DOWNLOADS\STUDIES\CSCI580 HOMEWORKS AND OTHER MATERIAL\HW5\DEBUG\CS580HW5.EXE.EMBED.MANIFEST.RES|C:\USERS\ANUJ_VARMA\DOWNLOADS\STUDIES\CSCI580 HOMEWORKS AND OTHER MATERIAL\HW5\DEBUG\CS580HWDOC.OBJ|C:\USERS\ANUJ_VARMA\DOWNLOADS\STUDIES\CSCI580 HOMEWORKS AND OTHER MATERIAL\HW5\DEBUG\CS580HWVIEW.OBJ|C:\USERS\ANUJ_VARMA\DOWNLOADS\STUDIES\CSCI580 HOMEWORKS AND OTHER MATERIAL\HW5\DEBUG\DISP.OBJ|C:\USERS\ANUJ_VARMA\DOWNLOADS\STUDIES\CSCI580 HOMEWORKS AND OTHER MATERIAL\HW5\DEBUG\MAINFRM.OBJ|C:\USERS\ANUJ_VARMA\DOWNLOADS\STUDIES\CSCI580 HOMEWORKS AND OTHER MATERIAL\HW5\DEBUG\REND.OBJ|C:\USERS\ANUJ_VARMA\DOWNLOADS\STUDIES\CSCI580 HOMEWORKS AND OTHER MATERIAL\HW5\DEBUG\ROTATEDLG.OBJ|C:\USERS\ANUJ_VARMA\DOWNLOADS\STUDIES\CSCI580 HOMEWORKS AND OTHER MATERIAL\HW5\DEBUG\SCALEDLG.OBJ|C:\USERS\ANUJ_VARMA\DOWNLOADS\STUDIES\CSCI580 HOMEWORKS AND OTHER MATERIAL\HW5\DEBUG\STDAFX.OBJ|C:\USERS\ANUJ_VARMA\DOWNLOADS\STUDIES\CSCI580 HOMEWORKS AND OTHER MATERIAL\HW5\DEBUG\TEX_FUN.OBJ|C:\USERS\ANUJ_VARMA\DOWNLOADS\STUDIES\CSCI580 HOMEWORKS AND OTHER MATERIAL\HW5\DEBUG\TRANSLATEDLG.OBJ
/ERRORREPORT:PROMPT /OUT:".\Debug\CS580HW5.exe" /INCREMENTAL /NOLOGO /MANIFEST /ManifestFile:".\Debug\CS580HW5.exe.intermediate.manifest" /MANIFESTUAC:"level='asInvoker' uiAccess='false'" /DEBUG /PDB:"C:\Users\Anuj_Varma\Downloads\Studies\CSCI580 Homeworks and other material\HW5\Debug\CS580HW5.pdb" /SUBSYSTEM:WINDOWS /TLBID:1 /DYNAMICBASE /NXCOMPAT /IMPLIB:".\Debug\CS580HW5.lib" /MACHINE:X86 .\Debug\CS580HW.res
.\Debug\CS580HW5.exe.embed.manifest.res
.\Debug\Application.obj
.\Debug\Application5.obj
.\Debug\CS580HW.obj
.\Debug\CS580HWDoc.obj
.\Debug\CS580HWView.obj
.\Debug\disp.obj
.\Debug\MainFrm.obj
.\Debug\rend.obj
.\Debug\RotateDlg.obj
.\Debug\ScaleDlg.obj
.\Debug\StdAfx.obj
.\Debug\tex_fun.obj
.\Debug\TranslateDlg.obj
