^C:\USERS\ASHOK\DOCUMENTS\VISUAL STUDIO 2010\PROJECTS\HW5CSCI580\CS580HW.RC
/D _DEBUG /D _VC80_UPGRADE=0x0600 /D _AFXDLL /l"0x0409" /nologo /fo".\Debug\CS580HW.res" CS580HW.rc /D _DEBUG /D _VC80_UPGRADE=0x0600 /D _AFXDLL /l"0x0409" /nologo /fo".\Debug\CS580HW.res" C:\USERS\ASHOK\DOCUMENTS\VISUAL STUDIO 2010\PROJECTS\HW5CSCI580\CS580HW.RC
^C:\USERS\ASHOK\DOCUMENTS\VISUAL STUDIO 2010\PROJECTS\HW5CSCI580\DEBUG\CS580HW5_MANIFEST.RC
/nologo /fo".\Debug\CS580HW5.exe.embed.manifest.res" .\Debug\CS580HW5_manifest.rc /nologo /fo".\Debug\CS580HW5.exe.embed.manifest.res" C:\USERS\ASHOK\DOCUMENTS\VISUAL STUDIO 2010\PROJECTS\HW5CSCI580\DEBUG\CS580HW5_MANIFEST.RC
^C:\USERS\ANUJ_VARMA\DOWNLOADS\STUDIES\CSCI580 HOMEWORKS AND OTHER MATERIAL\HW5\CS580HW.RC
/D _DEBUG /D _VC80_UPGRADE=0x0600 /D _AFXDLL /l"0x0409" /nologo /fo".\Debug\CS580HW.res" CS580HW.rc /D _DEBUG /D _VC80_UPGRADE=0x0600 /D _AFXDLL /l"0x0409" /nologo /fo".\Debug\CS580HW.res" C:\USERS\ANUJ_VARMA\DOWNLOADS\STUDIES\CSCI580 HOMEWORKS AND OTHER MATERIAL\HW5\CS580HW.RC
^C:\USERS\ANUJ_VARMA\DOWNLOADS\STUDIES\CSCI580 HOMEWORKS AND OTHER MATERIAL\HW5\DEBUG\CS580HW5_MANIFEST.RC
/nologo /fo".\Debug\CS580HW5.exe.embed.manifest.res" .\Debug\CS580HW5_manifest.rc /nologo /fo".\Debug\CS580HW5.exe.embed.manifest.res" C:\USERS\ANUJ_VARMA\DOWNLOADS\STUDIES\CSCI580 HOMEWORKS AND OTHER MATERIAL\HW5\DEBUG\CS580HW5_MANIFEST.RC
